{
    "status": "success",
    "code": 200,
    "message": "成功",
    "data": [
        {
            "user_id": 1,
            "category_id": 2,
            "title": "測試文章 1",
            "content": "這是測試文章 1 的內容。這裡可以放入一些較長的測試內容...",
            "created_at": "2025-05-03T06:37:25.000000Z"
        },
        {
            "user_id": 1,
            "category_id": 1,
            "title": "測試文章 2",
            "content": "這是測試文章 2 的內容。這裡可以放入一些較長的測試內容...",
            "created_at": "2025-05-03T06:37:25.000000Z"
        },
        {
            "user_id": 1,
            "category_id": 1,
            "title": "測試文章 3",
            "content": "這是測試文章 3 的內容。這裡可以放入一些較長的測試內容...",
            "created_at": "2025-05-03T06:37:25.000000Z"
        }
    ],
    "meta": {
        "pagination": {
            "current_page": 1,
            "total_pages": 2,
            "total_items": 20,
            "per_page": 15
        }
    }
}